{"meta":{"pagination":{"total":1508,"pages":76,"page":1,"limit":20,"links":{"previous":null,"current":"https://gorest.co.in/public/v1/posts?page=1","next":"https://gorest.co.in/public/v1/posts?page=2"}}},"data":[{"id":1,"user_id":1,"title":"Somniculosus bene tametsi ea sit temperantia alius denego voluptatem aestivus cras ver.","body":"Tardus tunc anser. Repellat voluptate abscido. Thermae adfectus patrocinor. Dignissimos ultio tolero. Canis trucido beneficium. Deludo appositus vestrum. Condico sodalitas tres. Amplus amaritudo delego. Comburo inflammatio cum. Tabgo comedo speculum. Vulnus abduco crepusculum. Caritas spoliatio taedium. Talis cibo vitae. Supra sponte auctus. Fugit corona qui. Ulterius hic summa. Benigne valens vigilo. Atrox degusto cum. Debeo conitor delicate. Minima suffragium trans. Unde defessus anser. Nemo et amplexus. Conventus nostrum repudiandae. Degero debeo cui. Saepe comminor celebrer. Creta cras quo."},{"id":2,"user_id":1,"title":"Careo sint doloremque cultura adsuesco omnis accommodo adeo tremo.","body":"Cruciamentum callide molestiae. Spoliatio distinctio quia. Cibus soleo curis. Omnis animi adflicto. Carbo deripio tactus. Caste vulnus tum. Adversus suscipio venustas. Conservo veritatis acer. Callide temptatio tollo. Coepi utor aliquid. Cubicularis reprehenderit bestia. Tergiversatio debeo est. Alii verto vel. Celer eos thema. Conitor auditor absconditus. Causa alius cresco. Argentum colo sumptus. Caterva quis aut. Aer canonicus tolero. Ater consuasor carus. Terga cimentarius terebro."},{"id":3,"user_id":2,"title":"Celer vox aut armo amoveo voluptatem amplitudo suasoria desparatus voco curia minima crebro adnuo.","body":"Volo bene compello. Defaeco traho curia. Possimus contego solum. Sumptus vox inflammatio. Claro colo demonstro. Umquam aestivus cilicium. Subvenio cupiditas crux. Et deserunt derideo. Cunabula avarus aut. Qui explicabo anser. Delectus concedo absum. Dolor acsi aliquam. Terreo cena valeo. Est commodo anser. Torrens volaticus capillus. Curiositas volup abbas. Terminatio surgo rerum. Aptus vado sed. Benigne tactus et. Aranea eos commemoro. Dolores ater curatio. Esse arca dapifer. Deorsum celebrer adulatio."},{"id":4,"user_id":2,"title":"Sublime colloco velit accusamus cinis crudelis crux earum vigor quo est studio statim voluptatibus sodalitas cohibeo xiphias.","body":"Cuppedia utor unde. Spoliatio et qui. Usus sordeo cupressus. Ait vomer brevis. Tandem curo aut. Torqueo candidus caries. Arma utilis arbitro. Acerbitas crustulum subvenio. Baiulus minus claudeo. Vapulus audeo asper. Accusamus nostrum hic. Tamisium ustilo defetiscor. Concedo stabilis cimentarius. Altus auris pauci. Tum beatae natus. A surgo defigo. Dolor demulceo dicta. Substantia socius nihil. Angustus qui curo."},{"id":5,"user_id":3,"title":"Quia sol suffoco tremo mollitia atqui dens dolores timor asporto cornu vito natus talio itaque.","body":"Collum adopto tyrannus. Vorax calamitas et. Amicitia tutamen atrox. Non minus suscipit. Arbor adstringo suasoria. Vigor voluptas arcus. Tabesco tempore saepe. Ulterius tabgo cado. Denuncio solium minima. Cubo aduro vel. Animus creo quos. Dens currus armarium. Apto deputo sed. Uterque urbs tamen. Sumptus aro bis. Natus coadunatio clamo. Suus quaerat excepturi. Conventus baiulus adsum. Adultus alias pauci. Vero pecus coaegresco. Voco despecto cupiditas. Custodia barba tandem. Earum cauda animus. Vilis degusto explicabo. Celebrer aegrotatio in. Thesis cupio cibus. Coadunatio absum beatus. Correptius vulnero crur. Copiose cilicium accendo."},{"id":6,"user_id":3,"title":"Audax suffoco solum cui causa sollicito clementia vitiosus fuga versus.","body":"Pel vesper stultus. Territo voluptatem ullam. Tamquam corporis peior. Nesciunt temperantia varietas. Carcer provident viscus. Appono et vobis. Administratio abscido auxilium. Advoco ambulo sequi. Decumbo argumentum cogito. Adinventitias cupiditate adnuo. Subiungo culpa tego. Vis quidem artificiose. Et dicta sumo. Blanditiis soluta admiratio. Xiphias accommodo qui. Beneficium eveniet spes. Qui soluta appello. Sono torrens minus. Vomer aut urbs. Undique aperte volaticus. Comprehendo tendo et. Uter tener administratio. Defendo theatrum subnecto."},{"id":7,"user_id":4,"title":"Debilito vestrum defluo odit caveo sursum venia consectetur conicio sustineo communis angelus tolero tristis bestia minima currus.","body":"Cito defetiscor quis. Corrigo peior suggero. Capitulus quaerat quibusdam. Sit curvus amiculum. Substantia suffoco apto. Defessus assumenda traho. Audio agnitio deputo. Animi alias decet. Decerno porro stipes. Acquiro suspendo super. Apostolus studio pecco. Cetera claro solitudo. Comitatus vilitas unde. Truculenter ars tergiversatio. Calamitas adsuesco demonstro. Tabula quibusdam creta. Consuasor qui barba. Patrocinor et eaque. Quo deficio decimus. Adultus clibanus sulum. Beatae aut casus. Desparatus defessus vigilo. Coruscus ambitus uter. Vulnus usque tot."},{"id":8,"user_id":4,"title":"Antiquus turba crustulum sumo aut est et voluptas toties repellendus terminatio clamo tamisium asperiores utilis umerus.","body":"Ut alveus eius. Aeternus desidero conspergo. Deprimo ancilla corroboro. Accusator conturbo cribro. Vergo aut officia. Arguo vero supplanto. Condico cimentarius curiositas. Umquam alter velociter. Spero officiis voluntarius. Aufero conspergo cupiditate. Aureus id facilis. Officia administratio strenuus. Utrum tum cohors. Subnecto cur arca. Callide undique pariatur. Credo adfectus sopor. Asporto talus maiores. Stabilis aspicio tunc. Illo stultus vinco. Usus antepono itaque. Careo sulum tenetur. Quis administratio conor. Vulgivagus dignissimos cotidie. Cohibeo considero tantillus. Canto vorago et. Vis conicio aestivus."},{"id":9,"user_id":6,"title":"Tantillus delectus quaerat consequuntur volubilis adhaero decimus dolore ter coma pel brevis ea.","body":"Clementia qui stultus. Ubi facere denego. Utor sto cuppedia. Impedit vicissitudo communis. Angelus confido tempora. Varius derelinquo concido. Quod corrumpo degusto. Confugo desipio vociferor. Aut arbitro cohaero. Tardus capto defungo. Possimus cotidie coadunatio. Amita cogito uterque. Patior pecunia delectatio. Stillicidium tredecim adicio. Trado desparatus defleo."},{"id":58,"user_id":59,"title":"Suggero utique arcus perspiciatis tener deleo centum dolor dicta angelus quia arceo audio tredecim alii tunc admoveo.","body":"Communis temeritas utrimque. Casso abundans desolo. Tamisium inventore dapifer. Adflicto conculco thermae. Deporto somniculosus teneo. Virga bis carcer. Aut coadunatio utrum. Curto vilitas tenuis. Venustas creator aperte. Repellat sperno recusandae. Maxime taceo absens. Est amiculum versus. Odit caelestis thesaurus. Truculenter nam canis. Custodia suppono vorax."},{"id":12,"user_id":9,"title":"Dolorem arbitro qui tendo tamquam valetudo cunctatio.","body":"Repellendus asporto maxime. Amplexus terra demergo. Tabernus adficio sono. Vigilo asperiores articulus. Auctor communis audeo. Aut sequi video. Rerum campana creptio. Coniecto sto avarus. Quis constans degero. Alius titulus vindico. Ambitus demonstro aurum. Ut cultura vulgaris. Conitor porro explicabo. Decerno sustineo ambulo. Amet crastinus vehemens. Celo non crebro. Derideo adflicto auditor. Antea vilitas assentator. Accendo suggero perferendis. Voluptatum defetiscor denego. Dolores consequatur celebrer."},{"id":17,"user_id":15,"title":"Victus clam quasi viscus pel approbo bibo theca tactus numquam thymum blandior careo adeptio baiulus.","body":"Tonsor allatus certe. Modi demoror desolo. Adhuc cognomen admitto. Attollo contra deprecator. Bos caste hic. Abbas angelus abundans. Adipisci et cruciamentum. Peior omnis veniam. Auctus molestias balbus. Omnis copiose ea. Laudantium vultuosus ustulo. Coma magnam copiose. Uberrime optio modi. Vitiosus exercitationem incidunt. Accusamus concido reprehenderit. Statua accusator quam."},{"id":18,"user_id":15,"title":"Crur accusamus enim tempora turbo vulgaris aut tametsi tamquam curia conicio tamdiu ustulo virgo tamisium contigo.","body":"Sub molestiae deleo. Reprehenderit amitto veritatis. Vulticulus conqueror in. Testimonium terebro conor. Curriculum alioqui triginta. Commodo celer suadeo. Laborum volva alter. Solium bis tunc. Clibanus viduo unde. Vox ducimus demergo. Vinitor terra auditor. Pectus conspergo soleo. Causa accusantium dolor. Vel vox minima. Caute vergo depulso. Adhaero vitiosus accipio. Causa tristis dolorem. Assumenda vomica socius. Perspiciatis adipiscor aqua. Sumptus trepide tubineus. Videlicet carus terreo. Aut armarium circumvenio. Stabilis turpe degero. Deporto avarus adhuc. Absum arbitro ciminatio. Vere valde adiuvo. Aegre architecto caveo. Nisi rerum adinventitias."},{"id":19,"user_id":16,"title":"Celebrer utrum calco vetus perspiciatis adinventitias taceo deficio adicio arx dedico arcus vos amo combibo.","body":"Arbustum ascisco decumbo. Supra credo usque. Supellex ademptio vilicus. Comprehendo curia toties. Vomica cognomen suggero. Laborum capto audax. Volutabrum curo amor. Eum sequi subito. Vix cum conicio. Aro solum vae. Sapiente praesentium clam. Cubo texo tres. Angelus una subvenio. Thorax defendo coniuratio. Odio culpo beatus. Vel nemo curvo. Cui corpus sodalitas. Surgo defendo adversus. Tabernus recusandae vox. Comitatus texo argumentum. Alienus comitatus perspiciatis."},{"id":20,"user_id":16,"title":"Solum spargo minus nihil studio umerus teres carpo adduco termes.","body":"Usus rerum omnis. Ustulo terga virgo. Admiratio currus vesper. Pauci dolorem adstringo. Voluntarius defendo commodi. Nihil eos tonsor. Suus condico armarium. Contigo acervus conicio. Necessitatibus ratione artificiose. Damnatio non tergum. Congregatio ademptio acidus. Cogo sed subito. Umbra adsidue vado. Totidem socius nihil. Careo ancilla sequi. Dolorum sit summisse. Numquam ultra atque. Cognomen bellum porro. Alter cohors recusandae. Adhaero sufficio curtus. Capitulus acquiro tersus. Spiculum audio cedo. Et consequuntur adduco. Speciosus rem cito. Vulticulus abduco defetiscor."},{"id":21,"user_id":18,"title":"Aggredior viriliter amicitia clibanus utrum vilicus theatrum.","body":"Ea cunctatio toties. Cunabula certus depraedor. Bardus vulnus virga. Est quia valde. Consequuntur curo adsum. Subito tamquam balbus. Tactus conduco commodi. Correptius compello acquiro. Cibo valeo ustulo. Tantillus speculum perspiciatis. Accedo bardus sunt. Caste tergeo vero. Asperiores natus auditor. Celebrer atqui copiose. Combibo alii deficio. Approbo velit versus. Villa officiis tristis. Sto spiritus arbitro. Blandior comminor amet. Trans argumentum aeternus. Absorbeo certo sufficio."},{"id":1456,"user_id":125,"title":"faker.lorem.sentence()","body":"faker.lorem.paragraphs()"},{"id":1457,"user_id":45,"title":"Statua cum amplus speciosus adversus animus.","body":"Curvo veritas ab. Apparatus ara causa. Tergum tamen voluptate. Vereor caelestis cras. Congregatio cado aeternus. Rem consectetur tibi. Attero crudelis placeat. Comptus ea alius. Calamitas tenuis thesis. Aro substantia amicitia. Aveho ad sit. Super vestrum sit. Crepusculum sursum provident. Strenuus carpo caste. Cunae antiquus arto. Coerceo quibusdam curso. Culpo venustas acer. Cultura cavus theologus. Qui casso ducimus. Clementia adnuo illo. Officia subito anser. Convoco valetudo deporto. Tendo urbs urbanus. Viscus defigo consequatur. Avarus curvus amita. Centum et cribro."},{"id":23,"user_id":19,"title":"Consuasor utrum utor cometes summisse molestias adhuc auctus barba cervus talio speciosus.","body":"Temptatio aveho aliqua. Nostrum celer apto. Callide depereo sit. Ancilla amet defero. Adflicto clamo aeneus. Capto tantillus cito. Repudiandae corpus thesis. Ut cicuta distinctio. Pectus tamdiu adinventitias. Degusto aut ut. Nostrum comminor solium. Carcer ullus corroboro. Depraedor tabesco dedecor. Quam nobis cunctatio. Spargo amiculum valde. Decipio ultra voveo. Demoror utilis voluptates. Videlicet adsuesco adsidue."},{"id":24,"user_id":19,"title":"Debilito defungo valeo sperno armo cometes stabilis desidero aetas hic summa tego tracto talus demoror suasoria adsuesco ceno defluo.","body":"Statua versus debilito. Cras asper timidus. Consequatur considero patruus. Adeo cursus theca. Dolorum verumtamen vinitor. Alii vox defluo. Adamo villa benevolentia. Error aegrus deduco. Aut cum utique. Accusantium spes villa. Auditor damno cado. Defleo talis et. Ipsum virga despirmatio. Certo ea molestiae. Canto totidem succurro. Eum sub stultus. Infit tenetur clementia. Bellicus thalassinus termes. Atque tricesimus cotidie. Pauci viriliter condico. Censura iure credo."}]}